…
#### 2. Анализ

1\. Определить небезопасные точки доступа (без шифрования – OPN)

``` r
nebez_td <- td_clean |> filter(privacy == "OPN")
print(nebez_td)
```

    # A tibble: 42 × 15
       BSSID    first_seen          last_seen           channel speed privacy cipher
       <chr>    <dttm>              <dttm>                <int> <int> <chr>   <chr> 
     1 E8:28:C… 2023-07-28 09:13:03 2023-07-28 11:55:38       6   130 OPN     <NA>  
     2 E8:28:C… 2023-07-28 09:13:06 2023-07-28 11:55:12       6   130 OPN     <NA>  
     3 E8:28:C… 2023-07-28 09:13:06 2023-07-28 11:55:11       6   130 OPN     <NA>  
     4 E8:28:C… 2023-07-28 09:13:06 2023-07-28 11:55:10       6    -1 OPN     <NA>  
     5 00:25:0… 2023-07-28 09:13:06 2023-07-28 11:56:21      44    -1 OPN     <NA>  
     6 E8:28:C… 2023-07-28 09:13:09 2023-07-28 11:56:05      11   130 OPN     <NA>  
     7 E8:28:C… 2023-07-28 09:13:13 2023-07-28 10:27:06       6   130 OPN     <NA>  
     8 E8:28:C… 2023-07-28 09:13:13 2023-07-28 10:39:43       6   130 OPN     <NA>  
     9 E8:28:C… 2023-07-28 09:13:17 2023-07-28 11:52:32       1   130 OPN     <NA>  
    10 E8:28:C… 2023-07-28 09:13:50 2023-07-28 11:43:39      11   130 OPN     <NA>  
    # ℹ 32 more rows
    # ℹ 8 more variables: auth <chr>, power <int>, beacons <int>, iv <int>,
    #   lan_ip <chr>, id_length <int>, essid <chr>, key <lgl>
…
  group_by(BSSID, session_id) |>
  summarise(
    start = min(first_seen),
    end = max(last_seen),
    .groups = 'drop')|>
  
  group_by(BSSID) |> mutate(sessions = n()) |> ungroup() |>
  mutate(dlit = as.numeric(end - start, units = "secs")) |>
  arrange(desc(dlit)) |> select(BSSID, sessions, start, end, dlit)

td_sessions
```

    # A tibble: 167 × 5
       BSSID             sessions start               end                  dlit
       <chr>                <int> <dttm>              <dttm>              <dbl>
     1 00:25:00:FF:94:73        1 2023-07-28 09:13:06 2023-07-28 11:56:21  9795
     2 E8:28:C1:DD:04:52        1 2023-07-28 09:13:09 2023-07-28 11:56:05  9776
     3 E8:28:C1:DC:B2:52        1 2023-07-28 09:13:03 2023-07-28 11:55:38  9755
     4 08:3A:2F:56:35:FE        1 2023-07-28 09:13:27 2023-07-28 11:55:53  9746
     5 6E:C7:EC:16:DA:1A        1 2023-07-28 09:13:03 2023-07-28 11:55:12  9729
     6 E8:28:C1:DC:B2:50        1 2023-07-28 09:13:06 2023-07-28 11:55:12  9726
     7 48:5B:39:F9:7A:48        1 2023-07-28 09:13:06 2023-07-28 11:55:11  9725
     8 E8:28:C1:DC:B2:51        1 2023-07-28 09:13:06 2023-07-28 11:55:11  9725
     9 E8:28:C1:DC:FF:F2        1 2023-07-28 09:13:06 2023-07-28 11:55:10  9724
    10 8E:55:4A:85:5B:01        1 2023-07-28 09:13:06 2023-07-28 11:55:09  9723
    # ℹ 157 more rows
…
6\. Отсортировать точки доступа по частоте отправки запросов (beacons) в
единицу времени по их убыванию.

``` r
td_clean |> mutate(dlit = as.numeric(last_seen - first_seen),
    beac_sec = ifelse(dlit!= 0, beacons/dlit, NA)) |> 
  arrange(desc(beac_sec)) |>
  select(BSSID, beac_sec, first_seen, last_seen, beacons, dlit)
```

    # A tibble: 167 × 6
       BSSID          beac_sec first_seen          last_seen           beacons  dlit
       <chr>             <dbl> <dttm>              <dttm>                <int> <dbl>
     1 F2:30:AB:E9:0…    0.857 2023-07-28 10:27:02 2023-07-28 10:27:09       6     7
     2 B2:CF:C0:00:4…    0.8   2023-07-28 10:40:54 2023-07-28 10:40:59       4     5
     3 3A:DA:00:F9:0…    0.556 2023-07-28 10:27:01 2023-07-28 10:27:10       5     9
     4 02:BC:15:7E:D…    0.5   2023-07-28 09:24:46 2023-07-28 09:24:48       1     2
     5 00:3E:1A:5D:1…    0.5   2023-07-28 10:34:03 2023-07-28 10:34:05       1     2
     6 76:C5:A0:70:0…    0.5   2023-07-28 11:16:36 2023-07-28 11:16:38       1     2
     7 D2:25:91:F6:6…    0.385 2023-07-28 09:45:29 2023-07-28 09:45:42       5    13
     8 BE:F1:71:D6:1…    0.174 2023-07-28 09:13:03 2023-07-28 11:50:44    1647  9461
     9 00:03:7A:1A:0…    0.167 2023-07-28 10:29:13 2023-07-28 10:29:19       1     6
    10 38:1A:52:0D:8…    0.163 2023-07-28 09:13:03 2023-07-28 10:25:02     704  4319
    # ℹ 157 more rows
…
2\. Обнаружить устройства, которые НЕ рандомизируют свой MAC адрес

``` r
client_clean |> 
  filter(!substr(station_mac, 2, 2) %in% c("2", "6", "a", "A", "e", "E")) |>
  distinct(station_mac)
```

    # A tibble: 220 × 1
       station_mac      
       <chr>            
     1 5C:3A:45:9E:1A:7B
     2 C0:E4:34:D8:E7:E5
     3 10:51:07:CB:33:E7
     4 68:54:5A:40:35:9E
     5 74:4C:A1:70:CE:F7
     6 BC:F1:71:D4:DB:04
     7 4C:44:5B:14:76:E3
     8 A0:E7:0B:AE:D5:44
     9 00:95:69:E7:7F:35
    10 00:95:69:E7:7C:ED
    # ℹ 210 more rows
…
